{
    "banner": "ePortfolio",
    "bannerImage": {
        "src": "dasadada.jpg",
        "width": "24",
        "height": "30"
    },
    "navbar": [
        {
            "text": "index",
            "link": "index.html"
        },
        {
            "text": "aboutMe",
            "link": "aboutMe.html"
        },
        {
            "text": "courses",
            "link": "courses.html"
        },
        {
            "text": "projects",
            "link": "projects.html"
        },
        {
            "text": "video",
            "link": "video.html"
        }
    ],
    "sites":[
        {
            "title": "Home",
            "components":[
                {
                    "type":"h1",
                    "value": "Welcome!"
                },
                {
                    "type":"p",
                    "value":"A well designed, informative and inviting personal Web site is an essential tool for any University student. A good personal site represents yourself online, providing a succinct summary of your academic career accented with personal style. It lets potential employers, grad schools, and other academics know a bit about your academic experiences, i.e. the courses you’ve taken and the projects you’ve worked on, while providing some details that let others know you are an interesting person who cares about the proper presentation of your work"
                },
                {
                    "type":"img",
                    "height":"",
                    "width":"",
                    "src":"./img/ePortfolio.jpg"
                }
                
            ]
            
        },
        {
            "title": "About Me"
            
        },
        {
            "title": "Courses"
            
        },
        {
            "title": "Projects"
        },
        {
            "title": "Awards"
        }
    ]
}

